<svg id="Grupo_122" data-name="Grupo 122" xmlns="http://www.w3.org/2000/svg" xmlns:xlink="http://www.w3.org/1999/xlink" width="250" height="261.689" viewBox="0 0 250 261.689">
  <defs>
    <clipPath id="clip-path">
      <rect id="Rectángulo_6" data-name="Rectángulo 6" width="250" height="261.689" fill="none"/>
    </clipPath>
  </defs>
  <g id="Grupo_121" data-name="Grupo 121" clip-path="url(#clip-path)">
    <path id="Trazado_65" data-name="Trazado 65" d="M184.014,116.053c53.142,0,96.222,41.983,96.222,93.772S237.157,303.6,184.014,303.6s-96.222-41.983-96.222-93.772,43.08-93.772,96.222-93.772" transform="translate(-30.237 -41.908)" fill="#fff"/>
    <path id="Trazado_66" data-name="Trazado 66" d="M232.761,26.17a13.273,13.273,0,0,1-13.426-13.084,13.431,13.431,0,0,1,26.852,0A13.273,13.273,0,0,1,232.761,26.17m0-17.446a4.363,4.363,0,1,0,4.475,4.362,4.424,4.424,0,0,0-4.475-4.362" transform="translate(-75.542 5)" fill="#3a3a3a"/>
    <path id="Trazado_67" data-name="Trazado 67" d="M155.317,76.421a4.522,4.522,0,0,1-3.164-1.278L138.726,62.059a4.282,4.282,0,0,1,0-6.167,4.557,4.557,0,0,1,6.328,0l13.426,13.084a4.282,4.282,0,0,1,0,6.167,4.523,4.523,0,0,1-3.165,1.278" transform="translate(-47.328 -19.722)" fill="#3a3a3a"/>
    <path id="Trazado_68" data-name="Trazado 68" d="M141.891,76.421a4.522,4.522,0,0,1-3.165-1.278,4.282,4.282,0,0,1,0-6.167l13.426-13.084a4.557,4.557,0,0,1,6.328,0,4.282,4.282,0,0,1,0,6.167L145.055,75.144a4.523,4.523,0,0,1-3.164,1.278" transform="translate(-47.328 -19.722)" fill="#3a3a3a"/>
    <path id="Trazado_69" data-name="Trazado 69" d="M349.144,228.222a4.664,4.664,0,1,1-4.784,4.663,4.725,4.725,0,0,1,4.784-4.663" transform="translate(-118.603 -82.414)" fill="#4c241d"/>
    <path id="Trazado_70" data-name="Trazado 70" d="M248.653,251.449h-4.475a11.05,11.05,0,0,1-11.19-10.9V225.28h26.853v15.265a11.049,11.049,0,0,1-11.188,10.9" transform="translate(-80.245 -81.351)" fill="#6b4f5b"/>
    <path id="Trazado_71" data-name="Trazado 71" d="M246.3,253.346h-4.475a15.487,15.487,0,0,1-15.664-15.266V222.816a4.418,4.418,0,0,1,4.475-4.362H257.49a4.419,4.419,0,0,1,4.476,4.362V238.08A15.487,15.487,0,0,1,246.3,253.346m-11.188-26.169v10.9a6.636,6.636,0,0,0,6.713,6.543H246.3a6.637,6.637,0,0,0,6.714-6.543v-10.9Z" transform="translate(-77.894 -78.886)" fill="#3a3a3a"/>
    <path id="Trazado_72" data-name="Trazado 72" d="M84.813,265.1H80.337a11.05,11.05,0,0,1-11.189-10.9V238.934H96V254.2a11.049,11.049,0,0,1-11.188,10.9" transform="translate(-23.816 -86.282)" fill="#6b4f5b"/>
    <path id="Trazado_73" data-name="Trazado 73" d="M82.462,267H77.986a15.487,15.487,0,0,1-15.664-15.266V236.469a4.418,4.418,0,0,1,4.475-4.362H93.65a4.419,4.419,0,0,1,4.476,4.362v15.264A15.487,15.487,0,0,1,82.462,267M71.273,240.83v10.9a6.636,6.636,0,0,0,6.713,6.543h4.476a6.636,6.636,0,0,0,6.713-6.543v-10.9Z" transform="translate(-21.465 -83.817)" fill="#3a3a3a"/>
    <path id="Trazado_74" data-name="Trazado 74" d="M180.43,109.227h-93L62.321,152.842H205.536Z" transform="translate(-21.464 -39.443)" fill="#fff"/>
    <path id="Trazado_75" data-name="Trazado 75" d="M204.829,150.583,61.75,156.641a4.508,4.508,0,0,1-3.954-1.993,4.259,4.259,0,0,1-.234-4.33L80.7,105.682a4.481,4.481,0,0,1,3.8-2.39l92.913-3.935a4.506,4.506,0,0,1,4,2.06l27.025,42.512a4.258,4.258,0,0,1,.153,4.334,4.485,4.485,0,0,1-3.761,2.32M69,147.6l127.81-5.412-21.62-34.009-87.679,3.713Z" transform="translate(-19.659 -35.877)" fill="#3a3a3a"/>
    <path id="Trazado_76" data-name="Trazado 76" d="M124.384,158.578a4.49,4.49,0,0,1-3.865-2.159,4.3,4.3,0,0,1,1.6-5.968L169.4,123.478a4.546,4.546,0,0,1,6.124,1.563,4.3,4.3,0,0,1-1.6,5.968l-47.283,26.973A4.568,4.568,0,0,1,124.384,158.578Z" transform="translate(-41.297 -44.375)" fill="#3a3a3a"/>
    <path id="Trazado_77" data-name="Trazado 77" d="M187.408,214.282H71.046c-12.359,0-22.377-9.764-22.377-21.808s10.018-21.807,22.377-21.807H187.408c12.36,0,22.378,9.763,22.378,21.807s-10.018,21.808-22.378,21.808" transform="translate(-16.762 -61.63)" fill="#fc8c29"/>
    <path id="Trazado_78" data-name="Trazado 78" d="M186.443,211.426l-116.2,6.024C55.46,218.217,42.791,207.119,42,192.709s10.6-26.755,25.388-27.522l116.2-6.025c14.785-.767,27.455,10.332,28.241,24.742s-10.6,26.756-25.389,27.523M67.868,173.9a17.453,17.453,0,1,0,1.9,34.843l116.2-6.025a17.453,17.453,0,1,0-1.9-34.843Z" transform="translate(-14.454 -57.462)" fill="#3a3a3a"/>
    <path id="Trazado_79" data-name="Trazado 79" d="M243,189.985a8.222,8.222,0,1,1-8.434,8.219A8.329,8.329,0,0,1,243,189.985" transform="translate(-80.788 -68.606)" fill="#ffce56"/>
    <path id="Trazado_80" data-name="Trazado 80" d="M240.648,208.321a12.584,12.584,0,1,1,12.91-12.582,12.763,12.763,0,0,1-12.91,12.582m0-16.438a3.858,3.858,0,1,0,3.96,3.854,3.911,3.911,0,0,0-3.96-3.854" transform="translate(-78.437 -66.142)" fill="#3a3a3a"/>
    <path id="Trazado_81" data-name="Trazado 81" d="M92.611,189.985a8.318,8.318,0,1,1-8.532,8.315,8.426,8.426,0,0,1,8.532-8.315" transform="translate(-28.958 -68.606)" fill="#ffce56"/>
    <path id="Trazado_82" data-name="Trazado 82" d="M90.259,208.51a12.68,12.68,0,1,1,13.009-12.675A12.858,12.858,0,0,1,90.259,208.51m0-16.628a3.954,3.954,0,1,0,4.058,3.953,4.01,4.01,0,0,0-4.058-3.953" transform="translate(-26.607 -66.141)" fill="#3a3a3a"/>
    <path id="Trazado_83" data-name="Trazado 83" d="M46.317,276.859a4.363,4.363,0,1,1,0-8.723H140.3v-4.361a4.419,4.419,0,0,1,4.476-4.362h80.558a4.363,4.363,0,1,1,0,8.723H149.252V272.5a4.418,4.418,0,0,1-4.475,4.361" transform="translate(-14.411 -93.677)" fill="#3a3a3a"/>
    <path id="Trazado_84" data-name="Trazado 84" d="M31.67,273.7,1.178,296.97A2.966,2.966,0,0,0,3.661,302.2l34.553-6.88a3,3,0,0,1,3.575,3.553l-9.565,41.381c-.756,3.269,3.762,5.056,5.558,2.2l26.409-42a3.087,3.087,0,0,1,4.74-.549l38.162,37.122a3.029,3.029,0,0,0,5.062-2.941L101.14,297.968a2.987,2.987,0,0,1,3.244-3.789l49.494,5.257a2.958,2.958,0,0,0,1.552-5.657l-47.765-20.461a3.1,3.1,0,0,0-1.223-.25h-72.9a3.092,3.092,0,0,0-1.874.63" transform="translate(0 -98.608)" fill="#3a3a3a"/>
  </g>
</svg>
