<svg xmlns="http://www.w3.org/2000/svg" width="172.712" height="267.744" viewBox="0 0 172.712 267.744">
  <g id="idea" transform="translate(-90.864 0)">
    <g id="Group_150" data-name="Group 150" transform="translate(94.409 3.744)">
      <g id="Group_149" data-name="Group 149" transform="translate(0)">
        <path id="Path_242" data-name="Path 242" d="M233.468,213.972h23.5v26.017h-23.5Z" transform="translate(-162.44 -105.821)" fill="#9eb6f4"/>
        <path id="Path_243" data-name="Path 243" d="M244.252,229.206V213.972H233.468v26.017h23.5V229.206Z" transform="translate(-162.44 -105.821)" fill="#6e91ef"/>
        <circle id="Ellipse_2" data-name="Ellipse 2" cx="27.371" cy="27.371" r="27.371" transform="translate(55.44 55.693)" fill="#faef93"/>
        <path id="Path_244" data-name="Path 244" d="M238.841,164.706a27.367,27.367,0,0,1-22.859-42.42,27.369,27.369,0,1,0,37.908,37.908,27.236,27.236,0,0,1-15.049,4.511Z" transform="translate(-148.22 -62.082)" fill="#f6e23d"/>
        <path id="Path_245" data-name="Path 245" d="M263.265,89.971a82.811,82.811,0,1,0-94.46,81.992v35.922H141.234v23.532H168.8v36.049H192.22V231.417h27.454V207.884H192.22V171.945A82.824,82.824,0,0,0,263.265,89.971Zm-149.4.253a66.591,66.591,0,1,1,66.591,66.591A66.591,66.591,0,0,1,113.863,90.223Z" transform="translate(-97.643 -7.159)" fill="#f49fd7"/>
        <g id="Group_148" data-name="Group 148" transform="translate(0.298 20.238)">
          <path id="Path_246" data-name="Path 246" d="M270.952,414.042h31.4v11.483h-31.4Z" transform="translate(-180.62 -221.505)" fill="#ef7dc6"/>
          <path id="Path_247" data-name="Path 247" d="M219.786,403.05H192.215V391H181v23.532h27.571v36.049h23.416V439.1h-12.2Z" transform="translate(-137.708 -210.513)" fill="#ef7dc6"/>
          <path id="Path_248" data-name="Path 248" d="M189.055,182.915C119.255,184.5,80.062,96.806,126.483,45.86,73.025,90.284,99.937,182.022,169.077,190.425v39.844h11.215V191.239A82.61,82.61,0,0,0,243.3,162.677a82.492,82.492,0,0,1-54.244,20.238Z" transform="translate(-98.213 -45.86)" fill="#ef7dc6"/>
        </g>
      </g>
    </g>
    <g id="Group_151" data-name="Group 151" transform="translate(90.864 0)">
      <path id="Path_249" data-name="Path 249" d="M177.091,0C71.8,2.942,58.661,150.174,161.417,171.889V200.38h-27.43v31.348h27.43v36.017h31.348V231.728h27.43V200.38h-27.43V171.889a86.16,86.16,0,0,0,17.16-5.023l-2.971-7.252a83.311,83.311,0,0,1-22.026,5.542v43.06h27.43v15.674h-27.43v36.017H169.254V223.891h-27.43V208.217h27.43v-43.06c-98.367-12.72-91.54-154.652,7.838-157.319,73.2-.3,106.845,93.368,50.16,139.612l4.99,6.043C294.572,102.637,257.553-.344,177.091,0Z" transform="translate(-90.864 0)"/>
      <path id="Path_250" data-name="Path 250" d="M330.851,301.8c2.444-1.316,4.853-2.769,7.163-4.317l-4.365-6.509c-2.1,1.408-4.292,2.729-6.514,3.926Z" transform="translate(-203.579 -138.811)"/>
      <path id="Path_251" data-name="Path 251" d="M241.293,51.9C198.071,7.617,120.141,39.938,121.028,101.745l7.837,0c-.789-54.936,68.486-83.655,106.887-44.3a62.683,62.683,0,0,1,0,88.547C199.9,182.795,134.8,160.367,129.326,109.32l-7.78.947c3.227,34.451,36.2,62.836,69.932,61.861,61.645.716,94.218-76.459,49.815-120.232Z" transform="translate(-105.251 -14.968)"/>
      <path id="Path_252" data-name="Path 252" d="M195.967,137.533a31.275,31.275,0,0,0,15.574,27.025v25.337h31.315V164.6A31.275,31.275,0,0,0,258.5,137.533H250.66a23.461,23.461,0,0,1-19.509,23.093V146.993l9.652-9.652-5.542-5.542-8.048,8.048-8.182-8.067-5.5,5.58,9.785,9.649v13.617A23.462,23.462,0,0,1,203.8,137.533c.438-26.892,37.754-32.261,45.88-6.716l7.509-2.242C246.335,94.463,196.548,101.66,195.967,137.533Zm39.051,44.525H219.378V167.8a31.5,31.5,0,0,0,15.641.018Z" transform="translate(-141.005 -50.789)"/>
      <path id="Path_253" data-name="Path 253" d="M248.26,60.971H256.1V76.645H248.26Z" transform="translate(-165.952 -29.087)"/>
      <path id="Path_254" data-name="Path 254" d="M0,0H7.837V15.674H0Z" transform="translate(44.65 50.728) rotate(-45)"/>
      <path id="Path_255" data-name="Path 255" d="M0,0H15.674V7.837H0Z" transform="translate(111.537 55.882) rotate(-45)"/>
    </g>
  </g>
</svg>
