<svg id="Grupo_130" data-name="Grupo 130" xmlns="http://www.w3.org/2000/svg" xmlns:xlink="http://www.w3.org/1999/xlink" width="250" height="227.192" viewBox="0 0 250 227.192">
  <defs>
    <clipPath id="clip-path">
      <rect id="Rectángulo_13" data-name="Rectángulo 13" width="250" height="227.192" fill="none"/>
    </clipPath>
  </defs>
  <g id="Grupo_129" data-name="Grupo 129" clip-path="url(#clip-path)">
    <path id="Trazado_178" data-name="Trazado 178" d="M166.859,47.786a98.593,98.593,0,1,1-98.593,98.593,98.593,98.593,0,0,1,98.593-98.593" transform="translate(-25.4 -17.78)" fill="#fff"/>
    <path id="Trazado_179" data-name="Trazado 179" d="M108.229,21.591a4.582,4.582,0,1,1-4.583,4.582,4.582,4.582,0,0,1,4.583-4.582" transform="translate(-38.564 -8.033)" fill="#3a3a3a"/>
    <path id="Trazado_184" data-name="Trazado 184" d="M315.376,30.006a15,15,0,1,1,15-15,15.021,15.021,0,0,1-15,15m0-21.433a6.43,6.43,0,1,0,6.43,6.43,6.437,6.437,0,0,0-6.43-6.43" transform="translate(-111.76)" fill="#3a3a3a"/>
    <path id="Trazado_185" data-name="Trazado 185" d="M388.122,192.257a4.583,4.583,0,1,1-4.583,4.583,4.583,4.583,0,0,1,4.583-4.583" transform="translate(-142.704 -71.534)" fill="#3a3a3a"/>
    <path id="Trazado_186" data-name="Trazado 186" d="M141.644,228.843c60.917,0,110.3,12.934,110.3,28.888s-49.382,28.888-110.3,28.888-110.3-12.933-110.3-28.888,49.382-28.888,110.3-28.888" transform="translate(-11.663 -85.146)" fill="#f53e28"/>
    <path id="Trazado_187" data-name="Trazado 187" d="M139.1,288.366c-56.94,0-114.584-11.4-114.584-33.175S82.164,222.017,139.1,222.017s114.584,11.394,114.584,33.173S196.045,288.366,139.1,288.366m0-57.776c-65.681,0-106.011,14.327-106.011,24.6s40.33,24.6,106.011,24.6,106.011-14.329,106.011-24.6-40.33-24.6-106.011-24.6" transform="translate(-9.123 -82.606)" fill="#3a3a3a"/>
    <path id="Trazado_188" data-name="Trazado 188" d="M81.531,207.1V192.626a64.717,64.717,0,0,1,26.446-52.188l23.834-17.478a46.562,46.562,0,0,1,56.3.936l21,16.5a64.718,64.718,0,0,1,24.733,50.888V207.1q-76.159,24.628-152.318,0" transform="translate(-30.335 -42.396)" fill="#f96e43"/>
    <path id="Trazado_189" data-name="Trazado 189" d="M155.152,221.133a250.721,250.721,0,0,1-77.478-12.469,4.288,4.288,0,0,1-2.968-4.08V190.108A69.245,69.245,0,0,1,102.9,134.463l23.831-17.478a51.015,51.015,0,0,1,61.491,1.021l21,16.5a68.587,68.587,0,0,1,26.368,54.257v15.815a4.289,4.289,0,0,1-2.968,4.08,250.684,250.684,0,0,1-77.472,12.47M83.279,201.448a238.118,238.118,0,0,0,143.741,0V188.77a60.072,60.072,0,0,0-23.1-47.518l-21-16.5A42.414,42.414,0,0,0,131.8,123.9l-23.827,17.478A60.638,60.638,0,0,0,83.279,190.11Z" transform="translate(-27.796 -39.879)" fill="#3a3a3a"/>
    <path id="Trazado_190" data-name="Trazado 190" d="M198.056,129.074h-6.829a13.731,13.731,0,0,1-13.732-13.731V95.653a13.731,13.731,0,0,1,13.732-13.731h6.829a13.731,13.731,0,0,1,13.731,13.731v19.69a13.732,13.732,0,0,1-13.731,13.731" transform="translate(-66.041 -30.481)" fill="#f53e28"/>
    <path id="Trazado_191" data-name="Trazado 191" d="M195.517,130.82h-6.832A18.038,18.038,0,0,1,170.669,112.8V93.112A18.038,18.038,0,0,1,188.686,75.1h6.832a18.038,18.038,0,0,1,18.017,18.017V112.8a18.039,18.039,0,0,1-18.017,18.017m-6.832-47.153a9.455,9.455,0,0,0-9.443,9.443V112.8a9.454,9.454,0,0,0,9.443,9.443h6.832a9.454,9.454,0,0,0,9.443-9.443V93.11a9.455,9.455,0,0,0-9.443-9.443Z" transform="translate(-63.501 -27.941)" fill="#3a3a3a"/>
    <path id="Trazado_192" data-name="Trazado 192" d="M213.624,142.994c-9.664,0-17.968-2.85-21.594-9.5a2.255,2.255,0,0,0-3.893,0c-3.626,6.651-11.929,9.5-21.594,9.5a24.463,24.463,0,0,1-2.616-.149V168.8a30.571,30.571,0,0,0,11.934,24.123l14.223,11.054L204.3,192.928A30.569,30.569,0,0,0,216.239,168.8V142.846a24.429,24.429,0,0,1-2.615.149" transform="translate(-60.993 -49.254)" fill="#ffce56"/>
    <path id="Trazado_193" data-name="Trazado 193" d="M187.542,205.727a4.269,4.269,0,0,1-2.629-.9l-14.221-11.053A34.673,34.673,0,0,1,157.1,166.265V140.3a4.282,4.282,0,0,1,4.743-4.262,20.68,20.68,0,0,0,2.161.123c5.179,0,14.384-.944,17.829-7.263a6.538,6.538,0,0,1,11.419,0c3.45,6.319,12.655,7.263,17.834,7.263a20.68,20.68,0,0,0,2.161-.123,4.282,4.282,0,0,1,4.743,4.262v25.962A34.67,34.67,0,0,1,204.4,193.772l-14.224,11.053a4.277,4.277,0,0,1-2.63.9m-21.868-61.016v21.552A26.168,26.168,0,0,0,175.951,187l11.591,9.008,11.6-9.008a26.168,26.168,0,0,0,10.277-20.739V144.711c-9.849-.316-17.452-3.452-21.873-8.975-4.416,5.524-12.014,8.659-21.868,8.975" transform="translate(-58.452 -46.713)" fill="#3a3a3a"/>
    <path id="Trazado_219" data-name="Trazado 219" d="M73.288,83.948a3.822,3.822,0,0,1-2.71-1.123L59.737,71.984a3.833,3.833,0,0,1,5.42-5.42L76,77.4a3.833,3.833,0,0,1-2.71,6.543" transform="translate(-45.566 35.306)" fill="#3a3a3a"/>
    <path id="Trazado_220" data-name="Trazado 220" d="M62.448,83.948a3.833,3.833,0,0,1-2.71-6.543l10.841-10.84A3.833,3.833,0,0,1,76,71.984L65.158,82.825a3.819,3.819,0,0,1-2.71,1.123" transform="translate(-45.566 35.306)" fill="#3a3a3a"/>
  </g>
</svg>
